{
  "images" : [
    {
      "idiom" : "universal",
      "scale" : "1x",
      "filename" : "play-green~iphone.png"
    },
    {
      "idiom" : "universal",
      "scale" : "2x",
      "filename" : "play-green@2x~iphone.png"
    },
    {
      "idiom" : "universal",
      "scale" : "3x"
    }
  ],
  "info" : {
    "version" : 1,
    "author" : "xcode"
  }
}