{
  "images" : [
    {
      "idiom" : "universal",
      "scale" : "1x",
      "filename" : "small_not.png"
    },
    {
      "idiom" : "universal",
      "scale" : "2x",
      "filename" : "small_not-1.png"
    },
    {
      "idiom" : "universal",
      "scale" : "3x",
      "filename" : "small_not-1-1.png"
    }
  ],
  "info" : {
    "version" : 1,
    "author" : "xcode"
  }
}